[
    {
        "url" : "/projet_test/web/admin/",
        "module" : "News",
        "action" : "index",
    },
    {
        "url" : "/projet_test/web/admin/news-insert\\.html",
        "module" : "News",
        "action" : "insert"
    },
    {
        "url" : "/projet_test/web/admin/news-update-([0-9]+)\\.html",
        "module" : "News",
        "action" : "update",
        "vars" : "id"
    },
    {
        "url" : "/projet_test/web/admin/news-delete-([0-9]+)\\.html",
        "module" : "News",
        "action" : "delete",
        "vars" : "id"
    },
    {
        "url" : "/projet_test/web/admin/comments-update-([0-9]+)\\.html",
        "module" : "News",
        "action" : "updateComments",
        "vars" : "id"
    },
    {
        "url" : "/projet_test/web/admin/comment-delete-([0-9]+)\\.html",
        "module" : "News",
        "action" : "deleteComment",
        "vars" : "id"
    }
]
